ISSS626-GAA - Take-home Exercise 3: Predicting HDB Resale Prices with Geographically Weighted Machine Learning Methods
…
malls <- read_csv("data/aspatial/mall_coordinates_updated.csv") %>%
  st_as_sf(coords=c("longitude","latitude"), crs=4326) %>%
  st_transform(crs = 3414)
write_rds(malls, "data/rds/malls.rds")

malls <- read_rds("data/rds/malls.rds")
malls

Simple feature collection with 199 features and 2 fields
Geometry type: POINT
Dimension:     XY
Bounding box:  xmin: 10760.28 ymin: 27369.76 xmax: 45400.14 ymax: 47763.06
Projected CRS: SVY21 / Singapore TM
# A tibble: 199 × 3
    ...1 name                               geometry
 * <dbl> <chr>                           <POINT [m]>
 1     0 100 AM                  (29129.86 28563.01)
 2     1 313@SOMERSET            (28485.88 31526.07)
 3     2 321 CLEMENTI            (20392.39 32702.67)
 4     3 600 @ TOA PAYOH          (29962.8 35137.08)
 5     4 888 PLAZA               (23767.99 46536.14)
 6     5 ADMIRALTY PLACE         (24491.47 46840.26)
 7     6 ALEXANDRA CENTRAL       (24879.92 29966.77)
 8     7 ALEXANDRA RETAIL CENTRE (24444.93 28480.59)
 9     8 AMK HUB                 (29685.94 39027.27)
10     9 ANCHORPOINT              (24916.03 30149.4)
# ℹ 189 more rows
…
